…
  pivot_longer(cols = c(2,3),values_to = 'Count',
                                          names_to = "Status")%>% 
  select(-Percent_Notified) %>% 
  group_by(County) %>% 
  mutate(
    Status=case_when(Status=="Notified"~"Notified",TRUE~"Not Notified"),
    pct=Count/sum(Count)) %>% 
  arrange(desc(Count))
counties <- distinct(births1,County) %>% pull(County)
set1 <- counties[1:23]
set2 <- counties[-(1:23)]
births1
```

    ## # A tibble: 94 x 4
    ## # Groups:   County [47]
    ##    County       Status    Count   pct
    ##    <chr>        <chr>     <dbl> <dbl>
    ##  1 NAIROBI CITY Notified 484632 0.963
    ##  2 KIAMBU       Notified 250515 0.970
    ##  3 NAKURU       Notified 204887 0.915
    ##  4 KAKAMEGA     Notified 150147 0.897
    ##  5 BUNGOMA      Notified 140356 0.881
    ##  6 MERU         Notified 137214 0.953
    ##  7 KILIFI       Notified 131765 0.924
    ##  8 MOMBASA      Notified 122981 0.939
    ##  9 MACHAKOS     Notified 118122 0.935
    ## 10 KAJIADO      Notified 113508 0.896
    ## # ... with 84 more rows
…
